{
  "description": "Please select JIRA version:",
  "key": "JIRA_VERSION",
  "prompt": true,
  "options": {
    "6.3.15": {
      "value": "http://nexus-atlassian-private.buildeng.atlassian.com:8081/content/repositories/atlassian-private/com/atlassian/jira/jira-standalone-distribution/6.3.15/jira-standalone-distribution-6.3.15-standalone.tar.gz",
      "link": "jira_6_3_15_jira_home.json"
    },
    "6.3.9": {
      "value": "http://nexus-atlassian-private.buildeng.atlassian.com:8081/content/repositories/atlassian-private/com/atlassian/jira/jira-standalone-distribution/6.3.9/jira-standalone-distribution-6.3.9-standalone.tar.gz",
      "link": "jira_6_3_9_jira_home.json"
    },
    "Or Just Enter Custom version": {
      "value": "http://nexus-atlassian-private.buildeng.atlassian.com:8081/content/repositories/atlassian-private/com/atlassian/jira/jira-standalone-distribution/OTHER_VERSION/jira-standalone-distribution-OTHER_VERSION-standalone.tar.gz",
      "link": "jira_all_jira_home.json"
    }
  }
}